{
  "pageNum": 1,
  "pageSize": 10,
  "size": 10,
  "startRow": 1,
  "endRow": 10,
  "total": 12,
  "pages": 2,
  "list": null,
  "prePage": 0,
  "nextPage": 2,
  "isFirstPage": true,
  "isLastPage": false,
  "hasPreviousPage": false,
  "hasNextPage": true,
  "navigatePages": 8,
  "navigatepageNums": [1, 2],
  "navigateFirstPage": 1,
  "navigateLastPage": 2,
  "rows": [{
    "deptId": 1,
    "deptNo": "1",
    "deptName": "默认部门",
    "descr": "",
    "deptType": null,
    "deptManager": "",
    "createTime": "2017-12-01T14:16:43.000+0800",
    "createUser": null,
    "updateTime": null,
    "updateUser": null,
    "deptStatus": "1",
    "isDel": "0"
  }, {
    "deptId": 2,
    "deptNo": "02",
    "deptName": "默认部门",
    "descr": "",
    "deptType": null,
    "deptManager": "",
    "createTime": "2017-12-01T14:18:38.000+0800",
    "createUser": null,
    "updateTime": null,
    "updateUser": null,
    "deptStatus": "1",
    "isDel": "0"
  }, {
    "deptId": 3,
    "deptNo": "2",
    "deptName": "默认部门",
    "descr": "",
    "deptType": null,
    "deptManager": "",
    "createTime": "2017-12-01T14:18:54.000+0800",
    "createUser": null,
    "updateTime": null,
    "updateUser": null,
    "deptStatus": "1",
    "isDel": "0"
  }, {
    "deptId": 4,
    "deptNo": "01",
    "deptName": "管理部门",
    "descr": "",
    "deptType": null,
    "deptManager": "",
    "createTime": "2017-12-04T11:27:37.000+0800",
    "createUser": null,
    "updateTime": null,
    "updateUser": null,
    "deptStatus": "1",
    "isDel": "0"
  }, {
    "deptId": 5,
    "deptNo": "215",
    "deptName": "审批部门",
    "descr": "",
    "deptType": null,
    "deptManager": "",
    "createTime": "2017-12-04T11:33:45.000+0800",
    "createUser": null,
    "updateTime": null,
    "updateUser": null,
    "deptStatus": "1",
    "isDel": "0"
  }, {
    "deptId": 6,
    "deptNo": "345",
    "deptName": "审讯部门",
    "descr": "",
    "deptType": null,
    "deptManager": "",
    "createTime": "2017-12-04T11:34:02.000+0800",
    "createUser": null,
    "updateTime": null,
    "updateUser": null,
    "deptStatus": "1",
    "isDel": "0"
  }, {
    "deptId": 7,
    "deptNo": "6952",
    "deptName": "指挥部门",
    "descr": "",
    "deptType": null,
    "deptManager": "",
    "createTime": "2017-12-04T11:34:15.000+0800",
    "createUser": null,
    "updateTime": "2017-12-05T17:29:03.000+0800",
    "updateUser": null,
    "deptStatus": "1",
    "isDel": "0"
  }, {
    "deptId": 8,
    "deptNo": "25625",
    "deptName": "审讯部门",
    "descr": "",
    "deptType": null,
    "deptManager": "",
    "createTime": "2017-12-04T13:13:18.000+0800",
    "createUser": null,
    "updateTime": null,
    "updateUser": null,
    "deptStatus": "1",
    "isDel": "0"
  }, {
    "deptId": 9,
    "deptNo": "B5695",
    "deptName": "审批部门",
    "descr": "",
    "deptType": null,
    "deptManager": "",
    "createTime": "2017-12-04T13:16:01.000+0800",
    "createUser": null,
    "updateTime": null,
    "updateUser": null,
    "deptStatus": "1",
    "isDel": "0"
  }, {
    "deptId": 10,
    "deptNo": "GH11563",
    "deptName": "指挥中心部门",
    "descr": "",
    "deptType": null,
    "deptManager": "",
    "createTime": "2017-12-04T13:16:17.000+0800",
    "createUser": null,
    "updateTime": null,
    "updateUser": null,
    "deptStatus": "1",
    "isDel": "0"
  }],
  "lastPage": 2,
  "firstPage": 1
}
